<svg width="226" height="177" viewBox="0 0 226 177" fill="none" xmlns="http://www.w3.org/2000/svg">
<path d="M29.6562 108.055C33.2188 108.055 36.2734 108.781 38.8203 110.234C41.3828 111.672 43.3203 113.727 44.6328 116.398C45.9453 119.055 46.6016 122.18 46.6016 125.773C46.6016 128.43 46.2422 130.844 45.5234 133.016C44.8047 135.188 43.7266 137.07 42.2891 138.664C40.8516 140.258 39.0859 141.477 36.9922 142.32C34.8984 143.164 32.5 143.586 29.7969 143.586C27.1094 143.586 24.7031 143.156 22.5781 142.297C20.4531 141.422 18.6797 140.195 17.2578 138.617C15.8359 137.039 14.7578 135.141 14.0234 132.922C13.3047 130.703 12.9453 128.305 12.9453 125.727C12.9453 123.086 13.3203 120.664 14.0703 118.461C14.8359 116.258 15.9375 114.383 17.375 112.836C18.8125 111.289 20.5625 110.109 22.625 109.297C24.6875 108.469 27.0312 108.055 29.6562 108.055ZM39.5469 125.727C39.5469 123.211 39.1406 121.031 38.3281 119.188C37.5156 117.344 36.3516 115.953 34.8359 115.016C33.3359 114.062 31.6094 113.586 29.6562 113.586C28.2656 113.586 26.9766 113.852 25.7891 114.383C24.6172 114.898 23.6016 115.656 22.7422 116.656C21.8984 117.656 21.2266 118.938 20.7266 120.5C20.2422 122.047 20 123.789 20 125.727C20 127.68 20.2422 129.445 20.7266 131.023C21.2266 132.602 21.9219 133.914 22.8125 134.961C23.7188 135.992 24.75 136.766 25.9062 137.281C27.0781 137.797 28.3594 138.055 29.75 138.055C31.5312 138.055 33.1641 137.609 34.6484 136.719C36.1484 135.828 37.3359 134.453 38.2109 132.594C39.1016 130.734 39.5469 128.445 39.5469 125.727ZM57.9219 121.109V121.883C59.0469 120.398 60.2734 119.312 61.6016 118.625C62.9453 117.922 64.4844 117.57 66.2188 117.57C67.9062 117.57 69.4141 117.938 70.7422 118.672C72.0703 119.406 73.0625 120.445 73.7188 121.789C74.1406 122.57 74.4141 123.414 74.5391 124.32C74.6641 125.227 74.7266 126.383 74.7266 127.789V139.695C74.7266 140.977 74.4297 141.945 73.8359 142.602C73.2578 143.258 72.5 143.586 71.5625 143.586C70.6094 143.586 69.8359 143.25 69.2422 142.578C68.6484 141.906 68.3516 140.945 68.3516 139.695V129.031C68.3516 126.922 68.0547 125.312 67.4609 124.203C66.8828 123.078 65.7188 122.516 63.9688 122.516C62.8281 122.516 61.7891 122.859 60.8516 123.547C59.9141 124.219 59.2266 125.148 58.7891 126.336C58.4766 127.289 58.3203 129.07 58.3203 131.68V139.695C58.3203 140.992 58.0156 141.969 57.4062 142.625C56.8125 143.266 56.0391 143.586 55.0859 143.586C54.1641 143.586 53.4062 143.25 52.8125 142.578C52.2188 141.906 51.9219 140.945 51.9219 139.695V121.203C51.9219 119.984 52.1875 119.078 52.7188 118.484C53.25 117.875 53.9766 117.57 54.8984 117.57C55.4609 117.57 55.9688 117.703 56.4219 117.969C56.875 118.234 57.2344 118.633 57.5 119.164C57.7812 119.695 57.9219 120.344 57.9219 121.109ZM96.6875 108.055C100.25 108.055 103.305 108.781 105.852 110.234C108.414 111.672 110.352 113.727 111.664 116.398C112.977 119.055 113.633 122.18 113.633 125.773C113.633 128.43 113.273 130.844 112.555 133.016C111.836 135.188 110.758 137.07 109.32 138.664C107.883 140.258 106.117 141.477 104.023 142.32C101.93 143.164 99.5312 143.586 96.8281 143.586C94.1406 143.586 91.7344 143.156 89.6094 142.297C87.4844 141.422 85.7109 140.195 84.2891 138.617C82.8672 137.039 81.7891 135.141 81.0547 132.922C80.3359 130.703 79.9766 128.305 79.9766 125.727C79.9766 123.086 80.3516 120.664 81.1016 118.461C81.8672 116.258 82.9688 114.383 84.4062 112.836C85.8438 111.289 87.5938 110.109 89.6562 109.297C91.7188 108.469 94.0625 108.055 96.6875 108.055ZM106.578 125.727C106.578 123.211 106.172 121.031 105.359 119.188C104.547 117.344 103.383 115.953 101.867 115.016C100.367 114.062 98.6406 113.586 96.6875 113.586C95.2969 113.586 94.0078 113.852 92.8203 114.383C91.6484 114.898 90.6328 115.656 89.7734 116.656C88.9297 117.656 88.2578 118.938 87.7578 120.5C87.2734 122.047 87.0312 123.789 87.0312 125.727C87.0312 127.68 87.2734 129.445 87.7578 131.023C88.2578 132.602 88.9531 133.914 89.8438 134.961C90.75 135.992 91.7812 136.766 92.9375 137.281C94.1094 137.797 95.3906 138.055 96.7812 138.055C98.5625 138.055 100.195 137.609 101.68 136.719C103.18 135.828 104.367 134.453 105.242 132.594C106.133 130.734 106.578 128.445 106.578 125.727ZM125.492 134.352V139.695C125.492 140.992 125.188 141.969 124.578 142.625C123.969 143.266 123.195 143.586 122.258 143.586C121.336 143.586 120.578 143.258 119.984 142.602C119.391 141.945 119.094 140.977 119.094 139.695V121.883C119.094 119.008 120.133 117.57 122.211 117.57C123.273 117.57 124.039 117.906 124.508 118.578C124.977 119.25 125.234 120.242 125.281 121.555C126.047 120.242 126.828 119.25 127.625 118.578C128.438 117.906 129.516 117.57 130.859 117.57C132.203 117.57 133.508 117.906 134.773 118.578C136.039 119.25 136.672 120.141 136.672 121.25C136.672 122.031 136.398 122.68 135.852 123.195C135.32 123.695 134.742 123.945 134.117 123.945C133.883 123.945 133.312 123.805 132.406 123.523C131.516 123.227 130.727 123.078 130.039 123.078C129.102 123.078 128.336 123.328 127.742 123.828C127.148 124.312 126.688 125.039 126.359 126.008C126.031 126.977 125.805 128.133 125.68 129.477C125.555 130.805 125.492 132.43 125.492 134.352ZM156.453 139.93V139.297C155.594 140.281 154.742 141.086 153.898 141.711C153.07 142.32 152.164 142.781 151.18 143.094C150.211 143.422 149.148 143.586 147.992 143.586C146.461 143.586 145.039 143.266 143.727 142.625C142.43 141.969 141.305 141.039 140.352 139.836C139.398 138.633 138.672 137.219 138.172 135.594C137.688 133.969 137.445 132.211 137.445 130.32C137.445 126.32 138.422 123.203 140.375 120.969C142.328 118.734 144.898 117.617 148.086 117.617C149.93 117.617 151.484 117.938 152.75 118.578C154.016 119.203 155.25 120.172 156.453 121.484V112.039C156.453 110.727 156.711 109.734 157.227 109.062C157.758 108.391 158.508 108.055 159.477 108.055C160.445 108.055 161.188 108.367 161.703 108.992C162.234 109.602 162.5 110.508 162.5 111.711V139.93C162.5 141.148 162.219 142.062 161.656 142.672C161.094 143.281 160.367 143.586 159.477 143.586C158.602 143.586 157.875 143.273 157.297 142.648C156.734 142.008 156.453 141.102 156.453 139.93ZM143.867 130.531C143.867 132.266 144.133 133.742 144.664 134.961C145.211 136.18 145.953 137.102 146.891 137.727C147.828 138.336 148.852 138.641 149.961 138.641C151.086 138.641 152.109 138.352 153.031 137.773C153.969 137.18 154.711 136.281 155.258 135.078C155.82 133.859 156.102 132.344 156.102 130.531C156.102 128.828 155.82 127.367 155.258 126.148C154.711 124.914 153.961 123.977 153.008 123.336C152.07 122.68 151.039 122.352 149.914 122.352C148.742 122.352 147.695 122.688 146.773 123.359C145.852 124.016 145.133 124.969 144.617 126.219C144.117 127.453 143.867 128.891 143.867 130.531ZM186.781 132.148H174.266C174.281 133.602 174.57 134.883 175.133 135.992C175.711 137.102 176.469 137.938 177.406 138.5C178.359 139.062 179.406 139.344 180.547 139.344C181.312 139.344 182.008 139.258 182.633 139.086C183.273 138.898 183.891 138.617 184.484 138.242C185.078 137.852 185.625 137.438 186.125 137C186.625 136.562 187.273 135.969 188.07 135.219C188.398 134.938 188.867 134.797 189.477 134.797C190.133 134.797 190.664 134.977 191.07 135.336C191.477 135.695 191.68 136.203 191.68 136.859C191.68 137.438 191.453 138.117 191 138.898C190.547 139.664 189.859 140.406 188.938 141.125C188.031 141.828 186.883 142.414 185.492 142.883C184.117 143.352 182.531 143.586 180.734 143.586C176.625 143.586 173.43 142.414 171.148 140.07C168.867 137.727 167.727 134.547 167.727 130.531C167.727 128.641 168.008 126.891 168.57 125.281C169.133 123.656 169.953 122.266 171.031 121.109C172.109 119.953 173.438 119.07 175.016 118.461C176.594 117.836 178.344 117.523 180.266 117.523C182.766 117.523 184.906 118.055 186.688 119.117C188.484 120.164 189.828 121.523 190.719 123.195C191.609 124.867 192.055 126.57 192.055 128.305C192.055 129.914 191.594 130.961 190.672 131.445C189.75 131.914 188.453 132.148 186.781 132.148ZM174.266 128.516H185.867C185.711 126.328 185.117 124.695 184.086 123.617C183.07 122.523 181.727 121.977 180.055 121.977C178.461 121.977 177.148 122.531 176.117 123.641C175.102 124.734 174.484 126.359 174.266 128.516ZM203.82 134.352V139.695C203.82 140.992 203.516 141.969 202.906 142.625C202.297 143.266 201.523 143.586 200.586 143.586C199.664 143.586 198.906 143.258 198.312 142.602C197.719 141.945 197.422 140.977 197.422 139.695V121.883C197.422 119.008 198.461 117.57 200.539 117.57C201.602 117.57 202.367 117.906 202.836 118.578C203.305 119.25 203.562 120.242 203.609 121.555C204.375 120.242 205.156 119.25 205.953 118.578C206.766 117.906 207.844 117.57 209.188 117.57C210.531 117.57 211.836 117.906 213.102 118.578C214.367 119.25 215 120.141 215 121.25C215 122.031 214.727 122.68 214.18 123.195C213.648 123.695 213.07 123.945 212.445 123.945C212.211 123.945 211.641 123.805 210.734 123.523C209.844 123.227 209.055 123.078 208.367 123.078C207.43 123.078 206.664 123.328 206.07 123.828C205.477 124.312 205.016 125.039 204.688 126.008C204.359 126.977 204.133 128.133 204.008 129.477C203.883 130.805 203.82 132.43 203.82 134.352Z" fill="#388E3C"/>
<g clip-path="url(#clip0_56_2)">
<path d="M113.5 96.9989C112.535 97.0006 111.578 96.8102 110.687 96.439C109.795 96.0677 108.985 95.5228 108.304 94.8357L63.1536 49.4842C61.774 48.0985 60.9989 46.219 60.9989 44.2592C60.9989 42.2994 61.774 40.42 63.1536 39.0342C64.5332 37.6484 66.4043 36.8699 68.3553 36.8699C70.3064 36.8699 72.1775 37.6484 73.5571 39.0342L113.5 79.1693L153.454 39.0482C154.834 37.6737 156.7 36.9045 158.643 36.9087C160.587 36.9129 162.45 37.6903 163.824 39.0707C165.198 40.4512 165.972 42.3222 165.976 44.2744C165.981 46.2266 165.215 48.101 163.846 49.4874L118.696 94.839C118.015 95.5255 117.205 96.0698 116.313 96.4405C115.421 96.8112 114.465 97.001 113.5 96.9989V96.9989Z" fill="#388E3C"/>
<path d="M113.5 53.1734C128.118 53.1734 139.969 41.2702 139.969 26.5867C139.969 11.9033 128.118 0 113.5 0C98.8818 0 87.0314 11.9033 87.0314 26.5867C87.0314 41.2702 98.8818 53.1734 113.5 53.1734Z" fill="#388E3C"/>
</g>
<defs>
<clipPath id="clip0_56_2">
<rect width="105" height="97" fill="white" transform="translate(61)"/>
</clipPath>
</defs>
</svg>
